…
#Create the combined tibble.
combined_tibble <- rbind(wisconsin, ndakota)%>%
  mutate(brewpub_or_bar_1_0 = if_else((brewery_type == "brewpub" | brewery_type == "bar"), 1, 0)) %>%
  group_by(state) %>%
  mutate(percent_brewpub_bar = mean(brewpub_or_bar_1_0)*100) %>% 
  select(brewpub_or_bar_1_0, percent_brewpub_bar, everything())

#Print the combined tibble.
combined_tibble
```

    ## # A tibble: 76 × 19
    ##    brewpub_or_…¹ perce…² id    name  brewe…³ street addre…⁴ addre…⁵ city  state count…⁶ posta…⁷ country longi…⁸ latit…⁹ phone websi…˟ updat…˟
    ##            <dbl>   <dbl> <chr> <chr> <chr>   <chr>  <lgl>   <lgl>   <chr> <chr> <lgl>   <chr>   <chr>     <dbl>   <dbl> <chr> <chr>   <chr>  
    ##  1             0      38 1840… 1840… micro   342 E… NA      NA      Milw… Wisc… NA      53207-… United…   -87.9    43.0 4142… http:/… 2022-0…
    ##  2             0      38 3-sh… 3 Sh… micro   1837 … NA      NA      Sheb… Wisc… NA      53083-… United…   -87.7    43.8 9209… http:/… 2022-0…
    ##  3             0      38 608-… 608 … planni… <NA>   NA      NA      La C… Wisc… NA      54603   United…    NA      NA   <NA>  http:/… 2022-0…
    ##  4             1      38 841-… 841 … brewpub 841 E… NA      NA      Whit… Wisc… NA      53190-… United…   -88.7    42.8 2624… <NA>    2022-0…
    ##  5             1      38 8th-… 8th … brewpub 1132 … NA      NA      Sheb… Wisc… NA      53081-… United…   -87.7    43.8 9202… http:/… 2022-0…
    ##  6             0      38 agon… Agon… planni… <NA>   NA      NA      Rice… Wisc… NA      54868-… United…    NA      NA   7153… http:/… 2022-0…
    ##  7             0      38 ahna… Ahna… micro   N9153… NA      NA      Algo… Wisc… NA      54201-… United…    NA      NA   9202… http:/… 2022-0…
    ##  8             0      38 ale-… Ale … region… 2002 … NA      NA      Madi… Wisc… NA      53704-… United…   -89.4    43.1 6086… http:/… 2022-0…
    ##  9             1      38 alt-… ALT … brewpub 1808 … NA      NA      Madi… Wisc… NA      53704-… United…   -89.3    43.1 6083… http:/… 2022-0…
    ## 10             1      38 angr… Angr… brewpub 10440… NA      NA      Hayw… Wisc… NA      54843-… United…   -91.5    46.0 7159… http:/… 2022-0…
    ## # … with 66 more rows, 1 more variable: created_at <chr>, and abbreviated variable names ¹​brewpub_or_bar_1_0, ²​percent_brewpub_bar,
    ## #   ³​brewery_type, ⁴​address_2, ⁵​address_3, ⁶​county_province, ⁷​postal_code, ⁸​longitude, ⁹​latitude, ˟​website_url, ˟​updated_at
…
Since Wisconsin beat North Dakota in the comparison above, let’s see how
many breweries are close to the capital of the state: Madison,
Wisconsin. The latitude and longitude of Madison, Wisconsin is 43.0722
and -89.4008, respectively. The 50 breweries closest to Madison,
Wisconsin can be seen in the tibble below.

``` r
madison <- listByDistance(lat = 43.0722, long = -89.4008, length = 50)

#Print the tibble.
madison
```

    ## # A tibble: 50 × 17
    ##    id                  name  brewe…¹ street addre…² addre…³ city  state count…⁴ posta…⁵ country longi…⁶ latit…⁷ phone websi…⁸ updat…⁹ creat…˟
    ##    <chr>               <chr> <chr>   <chr>  <lgl>   <lgl>   <chr> <chr> <lgl>   <chr>   <chr>     <dbl>   <dbl> <chr> <chr>   <chr>   <chr>  
    ##  1 luckys-1313-brewpu… Luck… brewpub 1313 … NA      NA      Madi… Wisc… NA      53715-… United…   -89.4    43.1 6082… http:/… 2022-0… 2022-0…
    ##  2 rockhound-brewing-… Rock… brewpub 444 S… NA      NA      Madi… Wisc… NA      53715-… United…   -89.4    43.1 6082… http:/… 2022-0… 2022-0…
    ##  3 funk-factory-geuze… Funk… micro   1602 … NA      NA      Madi… Wisc… NA      53715-… United…   -89.4    43.1 <NA>  http:/… 2022-0… 2022-0…
    ##  4 working-draft-beer… Work… micro   1129 … NA      NA      Madi… Wisc… NA      53703-… United…   -89.4    43.1 <NA>  http:/… 2022-0… 2022-0…
    ##  5 great-dane-pub-and… Grea… brewpub 357 P… NA      NA      Madi… Wisc… NA      53705-… United…   -89.5    43.1 6086… http:/… 2022-0… 2022-0…
    ##  6 one-barrel-brewing… One … micro   2001 … NA      NA      Madi… Wisc… NA      53704-… United…   -89.4    43.1 6086… http:/… 2022-0… 2022-0…
    ##  7 next-door-brewing-… Next… brewpub 2439 … NA      NA      Madi… Wisc… NA      53704-… United…   -89.3    43.1 6087… http:/… 2022-0… 2022-0…
    ##  8 vintage-brewing-co… Vint… brewpub 674 S… NA      NA      Madi… Wisc… NA      53711-… United…   -89.5    43.1 6082… http:/… 2022-0… 2022-0…
    ##  9 great-dane-pub-and… Grea… brewpub 2980 … NA      NA      Fitc… Wisc… NA      53711-… United…   -89.4    43.0 6084… http:/… 2022-0… 2022-0…
    ## 10 ale-asylum-madison  Ale … region… 2002 … NA      NA      Madi… Wisc… NA      53704-… United…   -89.4    43.1 6086… http:/… 2022-0… 2022-0…
    ## # … with 40 more rows, and abbreviated variable names ¹​brewery_type, ²​address_2, ³​address_3, ⁴​county_province, ⁵​postal_code, ⁶​longitude,
    ## #   ⁷​latitude, ⁸​website_url, ⁹​updated_at, ˟​created_at
…
The latitude and longitude of San Diego, California is 32.7157 and
-117.1611, respectively. We can create a tibble of breweries in San
Diego and find some summary statistics for the latitude and longitude
variables. Mathematically speaking, these numbers may not make a lot of
sense, this is just for the sake of showing the process!

``` r
san_diego <- listByCity(city = "San Diego", length = 50)

#Print the tibble.
san_diego
```

    ## # A tibble: 50 × 17
    ##    id                  name  brewe…¹ street addre…² addre…³ city  state count…⁴ posta…⁵ country longi…⁶ latit…⁷ phone websi…⁸ updat…⁹ creat…˟
    ##    <chr>               <chr> <chr>   <chr>  <lgl>   <lgl>   <chr> <chr> <lgl>   <chr>   <chr>     <dbl>   <dbl> <chr> <chr>   <chr>   <chr>  
    ##  1 10-barrel-brewing-… 10 B… large   1501 … NA      NA      San … Cali… NA      92101-… United…   -117.    32.7 6195… http:/… 2022-0… 2022-0…
    ##  2 2kids-brewing-comp… 2Kid… micro   8680 … NA      NA      San … Cali… NA      92126-… United…   -117.    32.9 8584… http:/… 2022-0… 2022-0…
    ##  3 32-north-brewing-c… 32 N… closed  8655 … NA      NA      San … Cali… NA      92121-… United…   -117.    32.9 <NA>  <NA>    2022-0… 2022-0…
    ##  4 abnormal-beer-comp… Abno… micro   16990… NA      NA      San … Cali… NA      92127-… United…   -117.    33.0 8586… http:/… 2022-0… 2022-0…
    ##  5 acoustic-ales-brew… Acou… closed  1795 … NA      NA      San … Cali… NA      92110-… United…   -117.    32.7 6192… http:/… 2022-0… 2022-0…
    ##  6 alesmith-brewing-c… AleS… region… 9990 … NA      NA      San … Cali… NA      92126-… United…   -117.    32.9 8585… http:/… 2022-0… 2022-0…
    ##  7 align-brewing-co-s… Alig… micro   8680 … NA      NA      San … Cali… NA      92126-… United…   -117.    32.9 <NA>  http:/… 2022-0… 2022-0…
    ##  8 alpine-beer-compan… Alpi… brewpub 6550 … NA      NA      San … Cali… NA      92121-… United…   -117.    32.9 6194… http:/… 2022-0… 2022-0…
    ##  9 alta-brewing-compa… Alta… micro   1983 … NA      NA      San … Cali… NA      92113-… United…   -117.    32.7 6197… http:/… 2022-0… 2022-0…
    ## 10 amplified-ale-work… Ampl… brewpub 9030 … NA      NA      San … Cali… NA      92121-… United…   -117.    32.9 6503… https:… 2022-0… 2022-0…
    ## # … with 40 more rows, and abbreviated variable names ¹​brewery_type, ²​address_2, ³​address_3, ⁴​county_province, ⁵​postal_code, ⁶​longitude,
    ## #   ⁷​latitude, ⁸​website_url, ⁹​updated_at, ˟​created_at
…
